…
```


pixels:
```
┌───────────────┬────────────────────┬────────────────┬───┬─────────────────┬──────────────────────┐
│   s_acctbal   │       s_name       │     n_name     │ … │     s_phone     │      s_comment       │
│ decimal(15,2) │      varchar       │    varchar     │   │     varchar     │       varchar        │
├───────────────┼────────────────────┼────────────────┼───┼─────────────────┼──────────────────────┤
│       9999.94 │ Supplier#002307508 │ GERMANY        │ … │ 17-503-112-5653 │ nag carefully. bli…  │
│       9999.79 │ Supplier#000712808 │ UNITED KINGDOM │ … │ 33-559-792-5549 │ uld have to use ca…  │
│       9999.77 │ Supplier#002254341 │ GERMANY        │ … │ 17-391-701-5367 │ uctions. blithely …  │
│       9999.75 │ Supplier#001017723 │ FRANCE         │ … │ 16-717-704-2066 │ ven instructions w…  │
│       9999.72 │ Supplier#001460104 │ UNITED KINGDOM │ … │ 33-408-531-3270 │ the carefully fina…  │
│       9999.70 │ Supplier#000836396 │ ROMANIA        │ … │ 29-579-143-3270 │ c accounts. blithe…  │
│       9999.70 │ Supplier#000239544 │ UNITED KINGDOM │ … │ 33-509-584-9496 │ ets are. blithely …  │
│       9999.67 │ Supplier#002003789 │ GERMANY        │ … │ 17-621-582-3046 │ y among the carefu…  │
│       9999.64 │ Supplier#002094356 │ ROMANIA        │ … │ 29-581-506-9539 │ ickly pending inst…  │
│       9999.36 │ Supplier#002937179 │ FRANCE         │ … │ 16-525-981-5086 │ e. slylyCustomer a…  │
│       9999.27 │ Supplier#002093565 │ GERMANY        │ … │ 17-644-158-9607 │ bove the blithely …  │
│       9999.21 │ Supplier#000241339 │ ROMANIA        │ … │ 29-796-589-8064 │ ounts are. unusual…  │
│       9998.98 │ Supplier#001266482 │ RUSSIA         │ … │ 32-583-820-1183 │ final, bold ideas …  │
│       9998.93 │ Supplier#002807981 │ RUSSIA         │ … │ 32-938-325-4297 │ p blithely after t…  │
│       9998.84 │ Supplier#000771025 │ UNITED KINGDOM │ … │ 33-208-199-6904 │  blithely express …  │
│       9998.78 │ Supplier#001171577 │ ROMANIA        │ … │ 29-280-166-8362 │ fily even accounts…  │
│       9998.77 │ Supplier#001583206 │ GERMANY        │ … │ 17-338-279-6817 │ egular theodolites…  │
│       9998.73 │ Supplier#002392929 │ FRANCE         │ … │ 16-846-156-5209 │ o beans are furiou…  │
│       9998.73 │ Supplier#002028638 │ RUSSIA         │ … │ 32-179-161-3169 │ ckages haggle furi…  │
│       9998.59 │ Supplier#000352619 │ GERMANY        │ … │ 17-705-323-4485 │ ctions along the r…  │
│          ·    │         ·          │    ·           │ · │        ·        │          ·           │
│          ·    │         ·          │    ·           │ · │        ·        │          ·           │
│          ·    │         ·          │    ·           │ · │        ·        │          ·           │
│       9992.70 │ Supplier#000245718 │ UNITED KINGDOM │ … │ 33-570-729-4176 │ carefully above th…  │
│       9992.66 │ Supplier#000541492 │ ROMANIA        │ … │ 29-172-548-6729 │ heodolites run fin…  │
│       9992.66 │ Supplier#002666275 │ UNITED KINGDOM │ … │ 33-232-137-3532 │ ording to the care…  │
│       9992.55 │ Supplier#002129389 │ GERMANY        │ … │ 17-758-434-2104 │ silent sheaves aga…  │
│       9992.54 │ Supplier#000099650 │ RUSSIA         │ … │ 32-971-481-2533 │ ged deposits cajol…  │
│       9992.41 │ Supplier#000853625 │ UNITED KINGDOM │ … │ 33-590-481-6043 │ ously across the b…  │
│       9992.40 │ Supplier#002540732 │ RUSSIA         │ … │ 32-855-640-9841 │ s cajole blithely …  │
│       9992.38 │ Supplier#002188434 │ FRANCE         │ … │ 16-811-300-2036 │ ular pinto beans. …  │
│       9992.27 │ Supplier#002149369 │ FRANCE         │ … │ 16-997-215-3908 │ h slyly after the …  │
│       9992.22 │ Supplier#002229635 │ ROMANIA        │ … │ 29-117-494-5343 │ unusual somas are …  │
│       9992.21 │ Supplier#001243459 │ ROMANIA        │ … │ 29-438-676-5070 │  ruthless deposits…  │
│       9992.18 │ Supplier#001499787 │ RUSSIA         │ … │ 32-981-276-2675 │ courts cajole slyl…  │
│       9992.14 │ Supplier#001551485 │ GERMANY        │ … │ 17-750-694-3182 │ lets. slyly specia…  │
│       9992.04 │ Supplier#001520263 │ RUSSIA         │ … │ 32-676-769-1115 │ ough the final, re…  │
│       9992.03 │ Supplier#000047868 │ FRANCE         │ … │ 16-814-219-3643 │ y. special account…  │
│       9992.00 │ Supplier#002889101 │ FRANCE         │ … │ 16-175-720-5603 │ ously ironic pinto…  │
│       9992.00 │ Supplier#002889101 │ FRANCE         │ … │ 16-175-720-5603 │ ously ironic pinto…  │
│       9991.98 │ Supplier#002500373 │ GERMANY        │ … │ 17-464-745-1571 │ . express, ironic …  │
│       9991.84 │ Supplier#000462341 │ UNITED KINGDOM │ … │ 33-607-871-1127 │  carefully bold th…  │
│       9991.57 │ Supplier#000991769 │ GERMANY        │ … │ 17-187-501-4064 │  regular asymptote…  │
├───────────────┴────────────────────┴────────────────┴───┴─────────────────┴──────────────────────┤
│ 100 rows (40 shown)                                                          8 columns (5 shown) │
└──────────────────────────────────────────────────────────────────────────────────────────────────┘
```

pixels encoding:
```
┌───────────────┬────────────────────┬────────────────┬───┬─────────────────┬──────────────────────┐
│   s_acctbal   │       s_name       │     n_name     │ … │     s_phone     │      s_comment       │
│ decimal(15,2) │      varchar       │    varchar     │   │     varchar     │       varchar        │
├───────────────┼────────────────────┼────────────────┼───┼─────────────────┼──────────────────────┤
│       9999.94 │ Supplier#002307508 │ GERMANY        │ … │ 17-503-112-5653 │ nag carefully. bli…  │
│       9999.79 │ Supplier#000712808 │ UNITED KINGDOM │ … │ 33-559-792-5549 │ uld have to use ca…  │
│       9999.77 │ Supplier#002254341 │ GERMANY        │ … │ 17-391-701-5367 │ uctions. blithely …  │
│       9999.75 │ Supplier#001017723 │ FRANCE         │ … │ 16-717-704-2066 │ ven instructions w…  │
│       9999.72 │ Supplier#001460104 │ UNITED KINGDOM │ … │ 33-408-531-3270 │ the carefully fina…  │
│       9999.70 │ Supplier#000836396 │ ROMANIA        │ … │ 29-579-143-3270 │ c accounts. blithe…  │
│       9999.70 │ Supplier#000239544 │ UNITED KINGDOM │ … │ 33-509-584-9496 │ ets are. blithely …  │
│       9999.67 │ Supplier#002003789 │ GERMANY        │ … │ 17-621-582-3046 │ y among the carefu…  │
│       9999.64 │ Supplier#002094356 │ ROMANIA        │ … │ 29-581-506-9539 │ ickly pending inst…  │
│       9999.36 │ Supplier#002937179 │ FRANCE         │ … │ 16-525-981-5086 │ e. slylyCustomer a…  │
│       9999.27 │ Supplier#002093565 │ GERMANY        │ … │ 17-644-158-9607 │ bove the blithely …  │
│       9999.21 │ Supplier#000241339 │ ROMANIA        │ … │ 29-796-589-8064 │ ounts are. unusual…  │
│       9998.98 │ Supplier#001266482 │ RUSSIA         │ … │ 32-583-820-1183 │ final, bold ideas …  │
│       9998.93 │ Supplier#002807981 │ RUSSIA         │ … │ 32-938-325-4297 │ p blithely after t…  │
│       9998.84 │ Supplier#000771025 │ UNITED KINGDOM │ … │ 33-208-199-6904 │  blithely express …  │
│       9998.78 │ Supplier#001171577 │ ROMANIA        │ … │ 29-280-166-8362 │ fily even accounts…  │
│       9998.77 │ Supplier#001583206 │ GERMANY        │ … │ 17-338-279-6817 │ egular theodolites…  │
│       9998.73 │ Supplier#002392929 │ FRANCE         │ … │ 16-846-156-5209 │ o beans are furiou…  │
│       9998.73 │ Supplier#002028638 │ RUSSIA         │ … │ 32-179-161-3169 │ ckages haggle furi…  │
│       9998.59 │ Supplier#000352619 │ GERMANY        │ … │ 17-705-323-4485 │ ctions along the r…  │
│          ·    │         ·          │    ·           │ · │        ·        │          ·           │
│          ·    │         ·          │    ·           │ · │        ·        │          ·           │
│          ·    │         ·          │    ·           │ · │        ·        │          ·           │
│       9992.70 │ Supplier#000245718 │ UNITED KINGDOM │ … │ 33-570-729-4176 │ carefully above th…  │
│       9992.66 │ Supplier#000541492 │ ROMANIA        │ … │ 29-172-548-6729 │ heodolites run fin…  │
│       9992.66 │ Supplier#002666275 │ UNITED KINGDOM │ … │ 33-232-137-3532 │ ording to the care…  │
│       9992.55 │ Supplier#002129389 │ GERMANY        │ … │ 17-758-434-2104 │ silent sheaves aga…  │
│       9992.54 │ Supplier#000099650 │ RUSSIA         │ … │ 32-971-481-2533 │ ged deposits cajol…  │
│       9992.41 │ Supplier#000853625 │ UNITED KINGDOM │ … │ 33-590-481-6043 │ ously across the b…  │
│       9992.40 │ Supplier#002540732 │ RUSSIA         │ … │ 32-855-640-9841 │ s cajole blithely …  │
│       9992.38 │ Supplier#002188434 │ FRANCE         │ … │ 16-811-300-2036 │ ular pinto beans. …  │
│       9992.27 │ Supplier#002149369 │ FRANCE         │ … │ 16-997-215-3908 │ h slyly after the …  │
│       9992.22 │ Supplier#002229635 │ ROMANIA        │ … │ 29-117-494-5343 │ unusual somas are …  │
│       9992.21 │ Supplier#001243459 │ ROMANIA        │ … │ 29-438-676-5070 │  ruthless deposits…  │
│       9992.18 │ Supplier#001499787 │ RUSSIA         │ … │ 32-981-276-2675 │ courts cajole slyl…  │
│       9992.14 │ Supplier#001551485 │ GERMANY        │ … │ 17-750-694-3182 │ lets. slyly specia…  │
│       9992.04 │ Supplier#001520263 │ RUSSIA         │ … │ 32-676-769-1115 │ ough the final, re…  │
│       9992.03 │ Supplier#000047868 │ FRANCE         │ … │ 16-814-219-3643 │ y. special account…  │
│       9992.00 │ Supplier#002889101 │ FRANCE         │ … │ 16-175-720-5603 │ ously ironic pinto…  │
│       9992.00 │ Supplier#002889101 │ FRANCE         │ … │ 16-175-720-5603 │ ously ironic pinto…  │
│       9991.98 │ Supplier#002500373 │ GERMANY        │ … │ 17-464-745-1571 │ . express, ironic …  │
│       9991.84 │ Supplier#000462341 │ UNITED KINGDOM │ … │ 33-607-871-1127 │  carefully bold th…  │
│       9991.57 │ Supplier#000991769 │ GERMANY        │ … │ 17-187-501-4064 │  regular asymptote…  │
├───────────────┴────────────────────┴────────────────┴───┴─────────────────┴──────────────────────┤
│ 100 rows (40 shown)                                                          8 columns (5 shown) │
└──────────────────────────────────────────────────────────────────────────────────────────────────┘
```

parquet:
```
┌───────────────┬────────────────────┬────────────────┬───┬─────────────────┬──────────────────────┐
│   s_acctbal   │       s_name       │     n_name     │ … │     s_phone     │      s_comment       │
│ decimal(15,2) │      varchar       │    varchar     │   │     varchar     │       varchar        │
├───────────────┼────────────────────┼────────────────┼───┼─────────────────┼──────────────────────┤
│       9999.94 │ Supplier#002307508 │ GERMANY        │ … │ 17-503-112-5653 │ nag carefully. bli…  │
│       9999.79 │ Supplier#000712808 │ UNITED KINGDOM │ … │ 33-559-792-5549 │ uld have to use ca…  │
│       9999.77 │ Supplier#002254341 │ GERMANY        │ … │ 17-391-701-5367 │ uctions. blithely …  │
│       9999.75 │ Supplier#001017723 │ FRANCE         │ … │ 16-717-704-2066 │ ven instructions w…  │
│       9999.72 │ Supplier#001460104 │ UNITED KINGDOM │ … │ 33-408-531-3270 │ the carefully fina…  │
│       9999.70 │ Supplier#000836396 │ ROMANIA        │ … │ 29-579-143-3270 │ c accounts. blithe…  │
│       9999.70 │ Supplier#000239544 │ UNITED KINGDOM │ … │ 33-509-584-9496 │ ets are. blithely …  │
│       9999.67 │ Supplier#002003789 │ GERMANY        │ … │ 17-621-582-3046 │ y among the carefu…  │
│       9999.64 │ Supplier#002094356 │ ROMANIA        │ … │ 29-581-506-9539 │ ickly pending inst…  │
│       9999.36 │ Supplier#002937179 │ FRANCE         │ … │ 16-525-981-5086 │ e. slylyCustomer a…  │
│       9999.27 │ Supplier#002093565 │ GERMANY        │ … │ 17-644-158-9607 │ bove the blithely …  │
│       9999.21 │ Supplier#000241339 │ ROMANIA        │ … │ 29-796-589-8064 │ ounts are. unusual…  │
│       9998.98 │ Supplier#001266482 │ RUSSIA         │ … │ 32-583-820-1183 │ final, bold ideas …  │
│       9998.93 │ Supplier#002807981 │ RUSSIA         │ … │ 32-938-325-4297 │ p blithely after t…  │
│       9998.84 │ Supplier#000771025 │ UNITED KINGDOM │ … │ 33-208-199-6904 │  blithely express …  │
│       9998.78 │ Supplier#001171577 │ ROMANIA        │ … │ 29-280-166-8362 │ fily even accounts…  │
│       9998.77 │ Supplier#001583206 │ GERMANY        │ … │ 17-338-279-6817 │ egular theodolites…  │
│       9998.73 │ Supplier#002392929 │ FRANCE         │ … │ 16-846-156-5209 │ o beans are furiou…  │
│       9998.73 │ Supplier#002028638 │ RUSSIA         │ … │ 32-179-161-3169 │ ckages haggle furi…  │
│       9998.59 │ Supplier#000352619 │ GERMANY        │ … │ 17-705-323-4485 │ ctions along the r…  │
│          ·    │         ·          │    ·           │ · │        ·        │          ·           │
│          ·    │         ·          │    ·           │ · │        ·        │          ·           │
│          ·    │         ·          │    ·           │ · │        ·        │          ·           │
│       9992.70 │ Supplier#000245718 │ UNITED KINGDOM │ … │ 33-570-729-4176 │ carefully above th…  │
│       9992.66 │ Supplier#000541492 │ ROMANIA        │ … │ 29-172-548-6729 │ heodolites run fin…  │
│       9992.66 │ Supplier#002666275 │ UNITED KINGDOM │ … │ 33-232-137-3532 │ ording to the care…  │
│       9992.55 │ Supplier#002129389 │ GERMANY        │ … │ 17-758-434-2104 │ silent sheaves aga…  │
│       9992.54 │ Supplier#000099650 │ RUSSIA         │ … │ 32-971-481-2533 │ ged deposits cajol…  │
│       9992.41 │ Supplier#000853625 │ UNITED KINGDOM │ … │ 33-590-481-6043 │ ously across the b…  │
│       9992.40 │ Supplier#002540732 │ RUSSIA         │ … │ 32-855-640-9841 │ s cajole blithely …  │
│       9992.38 │ Supplier#002188434 │ FRANCE         │ … │ 16-811-300-2036 │ ular pinto beans. …  │
│       9992.27 │ Supplier#002149369 │ FRANCE         │ … │ 16-997-215-3908 │ h slyly after the …  │
│       9992.22 │ Supplier#002229635 │ ROMANIA        │ … │ 29-117-494-5343 │ unusual somas are …  │
│       9992.21 │ Supplier#001243459 │ ROMANIA        │ … │ 29-438-676-5070 │  ruthless deposits…  │
│       9992.18 │ Supplier#001499787 │ RUSSIA         │ … │ 32-981-276-2675 │ courts cajole slyl…  │
│       9992.14 │ Supplier#001551485 │ GERMANY        │ … │ 17-750-694-3182 │ lets. slyly specia…  │
│       9992.04 │ Supplier#001520263 │ RUSSIA         │ … │ 32-676-769-1115 │ ough the final, re…  │
│       9992.03 │ Supplier#000047868 │ FRANCE         │ … │ 16-814-219-3643 │ y. special account…  │
│       9992.00 │ Supplier#002889101 │ FRANCE         │ … │ 16-175-720-5603 │ ously ironic pinto…  │
│       9992.00 │ Supplier#002889101 │ FRANCE         │ … │ 16-175-720-5603 │ ously ironic pinto…  │
│       9991.98 │ Supplier#002500373 │ GERMANY        │ … │ 17-464-745-1571 │ . express, ironic …  │
│       9991.84 │ Supplier#000462341 │ UNITED KINGDOM │ … │ 33-607-871-1127 │  carefully bold th…  │
│       9991.57 │ Supplier#000991769 │ GERMANY        │ … │ 17-187-501-4064 │  regular asymptote…  │
├───────────────┴────────────────────┴────────────────┴───┴─────────────────┴──────────────────────┤
│ 100 rows (40 shown)                                                          8 columns (5 shown) │
└──────────────────────────────────────────────────────────────────────────────────────────────────┘
```
…
